Lambs carcass composition • pasagropasr
…
library(readxl)
lambBreeds <- readxl::read_xlsx("../inst/extdata/lambBreeds.xlsx", sheet=1)

Now the dataset is available in the R environment, and
we can print the entire dataset by typing
lambBreeds or take a look to the first five lines by using
the head().

lambBreeds

## # A tibble: 40 × 26
##     Lamb Breed   HCW     F     K     G     U    CB    C1    C3   C12    E2    E3
##    <dbl> <chr> <dbl> <dbl> <dbl> <dbl> <dbl> <dbl> <dbl> <dbl> <dbl> <dbl> <dbl>
##  1  9810 CGB   14.5    279   745   222  651    598   2.7  5.4   2.3   24.3  20.4
##  2  9819 CGB   13.9    297   753   207  638    567   3.2  4.1   2.1   21.7  21.7
##  3  9853 CGB    9.06   269   656   191  561    504   2.8  2.3   2.5   18.5  17.6
##  4  9902 CGB    9.98   296   730   192  607    495   1.3  2.15  1.5   17.3  16.3
##  5  9905 CGB   10.2    262   690   192  582    500   0.9  4     1.45  16.8  15.9
##  6  9913 CGB   13.2    301   799   207  665    567   1.5  2.6   1.4   19    17  
##  7  9916 CGB   12.2    297   809   196  623.   536   1    2     1.2   17.4  20.3
##  8  9926 CGB   13.8    280   770   210  650    580   1.4  3.35  1.7   21.5  20  
##  9  9931 CGB   12.9    297   802   210  645    559   1    2.45  1     19.1  18  
## 10  9945 CGB   10.4    280   735   198  600    513   0.5  1.2   0.5   15.8  13.6
## # ℹ 30 more rows
## # ℹ 13 more variables: E4 <dbl>, B1 <dbl>, B3 <dbl>, B12 <dbl>, LEA1 <dbl>,
## #   LEA3 <dbl>, LEA12 <dbl>, MUS <dbl>, SF <dbl>, IF <dbl>, Bone <dbl>,
## #   RES <dbl>, KKCF <dbl>
…
